simulation/qsim/state_automaton.msim.vcd
$comment
	File created using the following command:
		vcd file state_automaton.msim.vcd -direction
$end
$date
	Thu May 12 19:43:49 2022
$end
$version
	ModelSim Version 10.1d
$end
$timescale
	1ps
$end
$scope module state_automaton_vlg_vec_tst $end
$var reg 1 ! CLOCK_50 $end
$var reg 1 " rst $end
$var reg 1 # x $end
$var wire 1 $ currentState [2] $end
$var wire 1 % currentState [1] $end
$var wire 1 & currentState [0] $end
$var wire 1 ' y $end
$var wire 1 ( sampler $end
$scope module i1 $end
$var wire 1 ) gnd $end
$var wire 1 * vcc $end
$var wire 1 + unknown $end
$var tri1 1 , devclrn $end
$var tri1 1 - devpor $end
$var tri1 1 . devoe $end
$var wire 1 / CLOCK_50~combout $end
$var wire 1 0 CLOCK_50~clkctrl_outclk $end
$var wire 1 1 x~combout $end
$var wire 1 2 currentState~3_combout $end
$var wire 1 3 currentState[0]~reg0_regout $end
$var wire 1 4 currentState~2_combout $end
$var wire 1 5 currentState[1]~reg0_regout $end
$var wire 1 6 rst~combout $end
$var wire 1 7 currentState~0_combout $end
$var wire 1 8 currentState~1_combout $end
$var wire 1 9 currentState[2]~reg0_regout $end
$var wire 1 : Equal0~0_combout $end
$upscope $end
$upscope $end
$enddefinitions $end
#0
$dumpvars
0!
0"
0#
0&
0%
0$
0'
x(
0)
1*
x+
1,
1-
1.
0/
00
01
02
03
04
05
06
07
08
09
0:
$end
#20000
1!
1/
10
0(
#40000
0!
0/
00
1(
#60000
1!
1/
10
0(
#70000
1#
11
1(
12
#80000
0!
0/
00
0(
#100000
1!
1/
10
1(
13
14
02
1&
#110000
0#
01
0(
04
#120000
0!
0/
00
1(
#140000
1!
1/
10
0(
03
0&
#160000
0!
0/
00
1(
#170000
1#
11
0(
12
#180000
1!
1/
10
1(
13
14
02
1&
#200000
0!
0/
00
0(
#220000
0#
1!
01
1/
10
1(
04
15
03
14
12
1%
0&
#240000
0!
0/
00
0(
#250000
1#
11
1(
04
#260000
1!
1/
10
0(
05
13
14
02
0%
1&
#280000
0!
0/
00
1(
#300000
1!
1/
10
0(
15
03
04
12
1%
0&
#320000
0!
0/
00
1(
#340000
1!
1/
10
0(
05
13
14
02
0%
1&
#360000
0#
0!
01
0/
00
1(
04
#380000
1!
1/
10
0(
03
0&
#400000
0!
0/
00
1(
#410000
1#
11
0(
12
#420000
1!
1/
10
1(
13
14
02
1&
#430000
0#
01
0(
04
#440000
0!
0/
00
1(
#450000
1#
11
0(
14
#460000
1!
1/
10
1(
15
03
04
12
1%
0&
#470000
0#
01
0(
14
#480000
0!
0/
00
1(
#500000
1!
1/
10
0(
13
17
04
02
1&
18
#520000
0!
0/
00
1(
#540000
1!
1/
10
0(
19
05
03
07
1$
0%
0&
08
#560000
0!
0/
00
1(
#570000
1#
11
0(
17
12
18
#580000
1!
1/
10
1(
13
14
02
1&
#600000
0!
0/
00
0(
#620000
1!
1/
10
1(
15
03
07
04
12
1%
0&
08
#630000
0#
01
0(
17
14
18
#640000
0!
0/
00
1(
#660000
1!
1/
10
0(
13
1:
07
04
02
1&
08
1'
#680000
0!
0/
00
1(
#700000
1!
1/
10
0(
09
05
03
0:
0$
0%
0&
0'
#720000
0!
0/
00
1(
#740000
1!
1/
10
0(
#760000
0!
0/
00
1(
#780000
1!
1/
10
0(
#800000
0!
0/
00
1(
#820000
1!
1/
10
0(
#840000
0!
0/
00
1(
#860000
1!
1/
10
0(
#880000
0!
0/
00
1(
#900000
1!
1/
10
0(
#920000
0!
0/
00
1(
#940000
1!
1/
10
0(
#960000
0!
0/
00
1(
#980000
1!
1/
10
0(
